%!PS-Adobe-2.0 EPSF-2.0
%%BoundingBox:  0 0 567 384
%%Title: /user/vdgeer/truth_mu.eps: c1
%%Creator: ROOT Version 5.34/19
%%CreationDate: Wed Oct 29 16:12:00 2014
%%EndComments
%%BeginProlog
80 dict begin
/s {stroke} def /l {lineto} def /m {moveto} def /t {translate} def
/r {rotate} def /rl {roll}  def /R {repeat} def
/d {rlineto} def /rm {rmoveto} def /gr {grestore} def /f {eofill} def
/c {setrgbcolor} def /black {0 setgray} def /sd {setdash} def
/cl {closepath} def /sf {scalefont setfont} def /lw {setlinewidth} def
/box {m dup 0 exch d exch 0 d 0 exch neg d cl} def
/NC{systemdict begin initclip end}def/C{NC box clip newpath}def
/bl {box s} def /bf {box f} def /Y { 0 exch d} def /X { 0 d} def 
/K {{pop pop 0 moveto} exch kshow} bind def
/ita {/ang 15 def gsave [1 0 ang dup sin exch cos div 1 0 0] concat} def 
/mp {newpath /y exch def /x exch def} def
/side {[w .77 mul w .23 mul] .385 w mul sd w 0 l currentpoint t -144 r} def
/mr {mp x y w2 0 360 arc} def /m24 {mr s} def /m20 {mr f} def
/mb {mp x y w2 add m w2 neg 0 d 0 w neg d w 0 d 0 w d cl} def
/mt {mp x y w2 add m w2 neg w neg d w 0 d cl} def
/m21 {mb f} def /m25 {mb s} def /m22 {mt f} def /m26{mt s} def
/m23 {mp x y w2 sub m w2 w d w neg 0 d cl f} def
/m27 {mp x y w2 add m w3 neg w2 neg d w3 w2 neg d w3 w2 d cl s} def
/m28 {mp x w2 sub y w2 sub w3 add m w3 0 d  0 w3 neg d w3 0 d 0 w3 d w3 0 d  0 w3 d w3 neg 0 d 0 w3 d w3 neg 0 d 0 w3 neg d w3 neg 0 d cl s } def
/m29 {mp gsave x w2 sub y w2 add w3 sub m currentpoint t 4 {side} repeat cl fill gr} def
/m30 {mp gsave x w2 sub y w2 add w3 sub m currentpoint t 4 {side} repeat cl s gr} def
/m31 {mp x y w2 sub m 0 w d x w2 sub y m w 0 d x w2 sub y w2 add m w w neg d x w2 sub y w2 sub m w w d s} def
/m32 {mp x y w2 sub m w2 w d w neg 0 d cl s} def
/m33 {mp x y w2 add m w3 neg w2 neg d w3 w2 neg d w3 w2 d cl f} def
/m34 {mp x w2 sub y w2 sub w3 add m w3 0 d  0 w3 neg d w3 0 d 0 w3 d w3 0 d  0 w3 d w3 neg 0 d 0 w3 d w3 neg 0 d 0 w3 neg d w3 neg 0 d cl f } def
/m2 {mp x y w2 sub m 0 w d x w2 sub y m w 0 d s} def
/m5 {mp x w2 sub y w2 sub m w w d x w2 sub y w2 add m w w neg d s} def
/reEncode {exch findfont dup length dict begin {1 index /FID eq  {pop pop} {def} ifelse } forall /Encoding exch def currentdict end dup /FontName get exch definefont pop } def [/Times-Bold /Times-Italic /Times-BoldItalic /Helvetica /Helvetica-Oblique
 /Helvetica-Bold /Helvetica-BoldOblique /Courier /Courier-Oblique /Courier-Bold /Courier-BoldOblique /Times-Roman /AvantGarde-Book /AvantGarde-BookOblique /AvantGarde-Demi /AvantGarde-DemiOblique /Bookman-Demi /Bookman-DemiItalic /Bookman-Light
 /Bookman-LightItalic /Helvetica-Narrow /Helvetica-Narrow-Bold /Helvetica-Narrow-BoldOblique /Helvetica-Narrow-Oblique /NewCenturySchlbk-Roman /NewCenturySchlbk-Bold /NewCenturySchlbk-BoldItalic /NewCenturySchlbk-Italic /Palatino-Bold
 /Palatino-BoldItalic /Palatino-Italic /Palatino-Roman ] {ISOLatin1Encoding reEncode } forall
%%EndProlog
%%BeginSetup
%%EndSetup
newpath  gsave  .25 .25 scale  gsave  0 0 t black[  ] 0 sd 3 lw 1 1 1 c 2268 1538 0 0 bf black 1 1 1 c 1814 1230 227 154 bf black 1814 1230 227 154 bl 1 1 1 c 1814 1230 227 154 bf black 1814 1230 227 154 bl 1 1 1 c 0 1 0.8 c 227 154 227 154 bf 0 1
 0.986667 c 226 154 454 154 bf 0.2 0 1 c 227 154 680 154 bf 0 0.0800001 1 c 227 154 907 154 bf 0.2 0 1 c 227 154 1134 154 bf 226 154 1361 154 bf 0.386667 0 1 c 227 154 1587 154 bf 227 154 1814 154 bf 0 0.0800001 1 c 227 153 227 308 bf 0 1 0.8 c 226
 153 454 308 bf 0 1 0.986667 c 227 153 680 308 bf 0 0.0800001 1 c 227 153 907 308 bf 0.2 0 1 c 227 153 1134 308 bf 0.386667 0 1 c 226 153 1361 308 bf 227 153 1587 308 bf 227 153 1814 308 bf 227 154 227 461 bf 0 0.0800001 1 c 226 154 454 461 bf 0 1
 0.8 c 227 154 680 461 bf 0 1 0.986667 c 227 154 907 461 bf 0 0.0800001 1 c 227 154 1134 461 bf 0.386667 0 1 c 226 154 1361 461 bf 227 154 1587 461 bf 227 154 1814 461 bf 227 154 227 615 bf 226 154 454 615 bf 0 0.266667 1 c 227 154 680 615 bf 0 1
 0.52 c 227 154 907 615 bf 0 0.733333 1 c 227 154 1134 615 bf 0.2 0 1 c 226 154 1361 615 bf 0.386667 0 1 c 227 154 1587 615 bf 227 154 1814 615 bf 227 154 227 769 bf 226 154 454 769 bf 227 154 680 769 bf 0 0.266667 1 c 227 154 907 769 bf 0 1
 0.0533333 c 227 154 1134 769 bf 0 0.733333 1 c 226 154 1361 769 bf 0.386667 0 1 c 227 154 1587 769 bf 227 154 1814 769 bf 227 154 227 923 bf 226 154 454 923 bf 227 154 680 923 bf 227 154 907 923 bf 0 0.266667 1 c 227 154 1134 923 bf 0.413333 1 0 c
 226 154 1361 923 bf 0 0.266667 1 c 227 154 1587 923 bf 0.386667 0 1 c 227 154 1814 923 bf 227 153 227 1077 bf 226 153 454 1077 bf 227 153 680 1077 bf 227 153 907 1077 bf 227 153 1134 1077 bf 0 0.266667 1 c 226 153 1361 1077 bf 0.88 1 0 c 227 153
 1587 1077 bf 0.2 0 1 c 227 153 1814 1077 bf 0.386667 0 1 c 227 154 227 1230 bf 226 154 454 1230 bf 227 154 680 1230 bf 227 154 907 1230 bf 227 154 1134 1230 bf 226 154 1361 1230 bf 0 0.546666 1 c 227 154 1587 1230 bf 0.88 1 0 c 227 154 1814 1230 bf
 1 1 1 c black 227 154 m 1814 X s
 gsave  2268 1538 0 0 C 1974.48 35.8403 t 0 r /Helvetica findfont 32.5821 sf 0 0 m (reco) show NC gr 
 gsave  2268 1538 0 0 C 1974.48 74.9389 t 0 r /Helvetica findfont 32.5821 sf 0 0 m (X) show NC gr 
 gsave  2268 1538 0 0 C 1941.9 52.1314 t 0 r /Symbol findfont 48.8732 sf 0 0 m ita (q) show gr NC gr 
 gsave  2268 1538 0 0 C 1850.67 52.1314 t 0 r /Helvetica findfont 48.8732 sf 0 0 m (cos ) show NC gr  227 191 m -37 Y s 272 172 m -18 Y s 317 172 m -18 Y s 363 172 m -18 Y s 408 191 m -37 Y s 454 172 m -18 Y s 499 172 m -18 Y s 544 172 m -18 Y s 590
 191 m -37 Y s 635 172 m -18 Y s 680 172 m -18 Y s 726 172 m -18 Y s 771 191 m -37 Y s 816 172 m -18 Y s 862 172 m -18 Y s 907 172 m -18 Y s 952 191 m -37 Y s 998 172 m -18 Y s 1043 172 m -18 Y s 1089 172 m -18 Y s 1134 191 m -37 Y s 1179 172 m -18 Y
 s 1225 172 m -18 Y s 1270 172 m -18 Y s 1315 191 m -37 Y s 1361 172 m -18 Y s 1406 172 m -18 Y s 1451 172 m -18 Y s 1497 191 m -37 Y s 1542 172 m -18 Y s 1587 172 m -18 Y s 1633 172 m -18 Y s 1678 191 m -37 Y s 1723 172 m -18 Y s 1769 172 m -18 Y s
 1814 172 m -18 Y s 1860 191 m -37 Y s 1905 172 m -18 Y s 1950 172 m -18 Y s 1996 172 m -18 Y s 2041 191 m -37 Y s 227 191 m -37 Y s
 gsave  2268 1538 0 0 C 205.267 104.263 t 0 r /Helvetica findfont 48.8732 sf 0 0 m (\2551) show NC gr 
 gsave  2268 1538 0 0 C 364.92 104.263 t 0 r /Helvetica findfont 48.8732 sf 0 0 m (\2550.8) show NC gr 
 gsave  2268 1538 0 0 C 544.122 104.263 t 0 r /Helvetica findfont 48.8732 sf 0 0 m (\2550.6) show NC gr 
 gsave  2268 1538 0 0 C 726.582 104.263 t 0 r /Helvetica findfont 48.8732 sf 0 0 m (\2550.4) show NC gr 
 gsave  2268 1538 0 0 C 909.042 104.263 t 0 r /Helvetica findfont 48.8732 sf 0 0 m (\2550.2) show NC gr 
 gsave  2268 1538 0 0 C 1120.83 104.263 t 0 r /Helvetica findfont 48.8732 sf 0 0 m (0) show NC gr 
 gsave  2268 1538 0 0 C 1277.22 104.263 t 0 r /Helvetica findfont 48.8732 sf 0 0 m (0.2) show NC gr 
 gsave  2268 1538 0 0 C 1459.68 104.263 t 0 r /Helvetica findfont 48.8732 sf 0 0 m (0.4) show NC gr 
 gsave  2268 1538 0 0 C 1642.14 104.263 t 0 r /Helvetica findfont 48.8732 sf 0 0 m (0.6) show NC gr 
 gsave  2268 1538 0 0 C 1821.34 104.263 t 0 r /Helvetica findfont 48.8732 sf 0 0 m (0.8) show NC gr 
 gsave  2268 1538 0 0 C 2029.87 104.263 t 0 r /Helvetica findfont 48.8732 sf 0 0 m (1) show NC gr  227 154 m 1230 Y s
 gsave  2268 1538 0 0 C 127.07 1332.61 t 90 r /Helvetica findfont 32.5821 sf 0 0 m (gen) show NC gr 
 gsave  2268 1538 0 0 C 87.9718 1332.61 t 90 r /Helvetica findfont 32.5821 sf 0 0 m (X) show NC gr 
 gsave  2268 1538 0 0 C 110.779 1300.03 t 90 r /Symbol findfont 48.8732 sf 0 0 m ita (q) show gr NC gr 
 gsave  2268 1538 0 0 C 110.779 1208.8 t 90 r /Helvetica findfont 48.8732 sf 0 0 m (cos ) show NC gr  281 154 m -54 X s 254 185 m -27 X s 254 215 m -27 X s 254 246 m -27 X s 281 277 m -54 X s 254 308 m -27 X s 254 338 m -27 X s 254 369 m -27 X s 281
 400 m -54 X s 254 431 m -27 X s 254 461 m -27 X s 254 492 m -27 X s 281 523 m -54 X s 254 554 m -27 X s 254 584 m -27 X s 254 615 m -27 X s 281 646 m -54 X s 254 677 m -27 X s 254 707 m -27 X s 254 738 m -27 X s 281 769 m -54 X s 254 800 m -27 X s
 254 830 m -27 X s 254 861 m -27 X s 281 892 m -54 X s 254 923 m -27 X s 254 953 m -27 X s 254 984 m -27 X s 281 1015 m -54 X s 254 1046 m -27 X s 254 1077 m -27 X s 254 1107 m -27 X s 281 1138 m -54 X s 254 1169 m -27 X s 254 1200 m -27 X s 254 1230
 m -27 X s 281 1261 m -54 X s 254 1292 m -27 X s 254 1323 m -27 X s 254 1353 m -27 X s 281 1384 m -54 X s 281 154 m -54 X s
 gsave  2268 1538 0 0 C 179.202 136.845 t 0 r /Helvetica findfont 48.8732 sf 0 0 m (\2551) show NC gr 
 gsave  2268 1538 0 0 C 130.329 257.399 t 0 r /Helvetica findfont 48.8732 sf 0 0 m (\2550.8) show NC gr 
 gsave  2268 1538 0 0 C 130.329 381.211 t 0 r /Helvetica findfont 48.8732 sf 0 0 m (\2550.6) show NC gr 
 gsave  2268 1538 0 0 C 130.329 505.023 t 0 r /Helvetica findfont 48.8732 sf 0 0 m (\2550.4) show NC gr 
 gsave  2268 1538 0 0 C 130.329 628.835 t 0 r /Helvetica findfont 48.8732 sf 0 0 m (\2550.2) show NC gr 
 gsave  2268 1538 0 0 C 188.976 749.389 t 0 r /Helvetica findfont 48.8732 sf 0 0 m (0) show NC gr 
 gsave  2268 1538 0 0 C 146.62 873.201 t 0 r /Helvetica findfont 48.8732 sf 0 0 m (0.2) show NC gr 
 gsave  2268 1538 0 0 C 146.62 997.013 t 0 r /Helvetica findfont 48.8732 sf 0 0 m (0.4) show NC gr 
 gsave  2268 1538 0 0 C 146.62 1120.83 t 0 r /Helvetica findfont 48.8732 sf 0 0 m (0.6) show NC gr 
 gsave  2268 1538 0 0 C 146.62 1244.64 t 0 r /Helvetica findfont 48.8732 sf 0 0 m (0.8) show NC gr 
 gsave  2268 1538 0 0 C 195.493 1365.19 t 0 r /Helvetica findfont 48.8732 sf 0 0 m (1) show NC gr  0.386667 0 1 c 102 61 2052 154 bf 0.2 0 1 c 102 62 2052 215 bf 0 0.0800001 1 c 102 61 2052 277 bf 0 0.266667 1 c 102 62 2052 338 bf 0 0.546666 1 c 102
 61 2052 400 bf 0 0.733333 1 c 102 62 2052 461 bf 0 1 0.986667 c 102 61 2052 523 bf 0 1 0.8 c 102 62 2052 584 bf 0 1 0.52 c 102 61 2052 646 bf 0 1 0.333333 c 102 62 2052 707 bf 0 1 0.0533333 c 102 61 2052 769 bf 0.133333 1 0 c 102 62 2052 830 bf
 0.413333 1 0 c 102 61 2052 892 bf 0.6 1 0 c 102 62 2052 953 bf 0.88 1 0 c 102 62 2052 1015 bf 1 0.933333 0 c 102 61 2052 1077 bf 1 0.653333 0 c 102 62 2052 1138 bf 1 0.466667 0 c 102 61 2052 1200 bf 1 0.186667 0 c 102 62 2052 1261 bf 1 0 0 c 102 61
 2052 1323 bf black 2154 154 m 1230 Y s 2100 166 m 54 X s 2100 410 m 54 X s 2100 653 m 54 X s 2100 897 m 54 X s 2100 1140 m 54 X s 2100 1384 m 54 X s 2100 166 m 54 X s
 gsave  2268 1538 0 0 C 2163.45 146.62 t 0 r /Helvetica findfont 48.8732 sf 0 0 m (0) show NC gr 
 gsave  2268 1538 0 0 C 2163.45 390.986 t 0 r /Helvetica findfont 48.8732 sf 0 0 m (0.2) show NC gr 
 gsave  2268 1538 0 0 C 2163.45 635.352 t 0 r /Helvetica findfont 48.8732 sf 0 0 m (0.4) show NC gr 
 gsave  2268 1538 0 0 C 2163.45 879.718 t 0 r /Helvetica findfont 48.8732 sf 0 0 m (0.6) show NC gr 
 gsave  2268 1538 0 0 C 2163.45 1124.08 t 0 r /Helvetica findfont 48.8732 sf 0 0 m (0.8) show NC gr 
 gsave  2268 1538 0 0 C 2163.45 1365.19 t 0 r /Helvetica findfont 48.8732 sf 0 0 m (1) show NC gr 
 gr  gr showpage
end
%%EOF
